{
    "scenarios": {
        "baseline": {
            "executor": "constant-arrival-rate",
            "rate": 1000,
            "timeUnit": "1s",
            "duration": "5m",
            "preAllocatedVUs": 100,
            "maxVUs": 500
        }
    }
}
