{
    "scenarios": {
        "baseline": {
            "executor": "constant-arrival-rate",
            "rate": 10000,
            "timeUnit": "1s",
            "duration": "5m",
            "preAllocatedVUs": 10000,
            "maxVUs": 30000
        }
    }
}
