{
  "event_id": "7c9ae6e58f03442b9203bbdcf6ae904c",
  "level": "error",
  "timestamp": "2021-07-08T12:59:16Z",
  "release": "db853d7",
  "environment": "development",
  "server_name": "MacBook.local",
  "modules": {
    "rake": "13.0.3",
    "concurrent-ruby": "1.1.9",
    "i18n": "1.8.10",
    "minitest": "5.14.4",
    "thread_safe": "0.3.6",
    "tzinfo": "1.2.9",
    "uglifier": "4.2.0",
    "web-console": "3.7.0"
  },
  "message": "",
  "user": {},
  "tags": { "request_id": "4253dcd9-5e48-474a-89b4-0e945ab825af" },
  "contexts": {
    "os": {
      "name": "Darwin",
      "version": "Darwin Kernel Version 20.5.0: Sat May  8 05:10:33 PDT 2021; root:xnu-7195.121.3~9/RELEASE_X86_64",
      "build": "20.5.0",
      "kernel_version": "Darwin Kernel Version 20.5.0: Sat May  8 05:10:33 PDT 2021; root:xnu-7195.121.3~9/RELEASE_X86_64"
    },
    "runtime": {
      "name": "ruby",
      "version": "ruby 2.5.1p57 (2018-03-29 revision 63029) [x86_64-darwin19]"
    },
    "trace": {
      "trace_id": "d82b93fbc39e4d13b85762afa2e3ff36",
      "span_id": "4a3ed8701e7f4ea4",
      "parent_span_id": null,
      "description": null,
      "op": "rails.request",
      "status": null
    }
  },
  "extra": {},
  "fingerprint": [],
  "breadcrumbs": {
    "values": [
      {
        "category": "start_processing.action_controller",
        "data": {
          "controller": "PostsController",
          "action": "error2",
          "params": { "controller": "posts", "action": "error2" },
          "format": "html",
          "method": "GET",
          "path": "/posts/error2",
          "start_timestamp": 1625749156.5553
        },
        "level": null,
        "message": "",
        "timestamp": 1625749156,
        "type": null
      },
      {
        "category": "process_action.action_controller",
        "data": {
          "controller": "PostsController",
          "action": "error2",
          "params": { "controller": "posts", "action": "error2" },
          "format": "html",
          "method": "GET",
          "path": "/posts/error2",
          "start_timestamp": 1625749156.55539,
          "view_runtime": null,
          "db_runtime": 0
        },
        "level": null,
        "message": "",
        "timestamp": 1625749156,
        "type": null
      }
    ]
  },
  "transaction": "PostsController#error2",
  "platform": "ruby",
  "sdk": { "name": "sentry.ruby.rails", "version": "4.5.1" },
  "request": {
    "url": "http://localhost/posts/error2",
    "method": "GET",
    "headers": {},
    "env": { "SERVER_NAME": "localhost", "SERVER_PORT": "4444" }
  },
  "exception": {
    "values": [
      {
        "type": "ActionView::MissingTemplate",
        "value": "Missing template posts/error2, application/error2 with {:locale=>[:en], :formats=>[:html], :variants=>[], :handlers=>[:raw, :erb, :html, :builder, :ruby, :coffee, :jbuilder]}. Searched in:\n  * \"/Users/developer/rails-project/app/views\"\n",
        "module": "ActionView",
        "thread_id": 70254489510160,
        "stacktrace": {
          "frames": [
            {
              "project_root": "/Users/developer/rails-project",
              "abs_path": "/Users/developer/.asdf/installs/ruby/2.5.1/lib/ruby/gems/2.5.0/gems/puma-3.12.6/lib/puma/thread_pool.rb",
              "function": "block in spawn_thread",
              "lineno": 135,
              "in_app": false,
              "filename": "puma/thread_pool.rb",
              "pre_context": ["          end\n", "\n", "          begin\n"],
              "context_line": "            block.call(work, *extra)\n",
              "post_context": [
                "          rescue Exception => e\n",
                "            STDERR.puts \"Error reached top of thread-pool: #{e.message} (#{e.class})\"\n",
                "          end\n"
              ]
            },
            {
              "project_root": "/Users/developer/rails-project",
              "abs_path": "/Users/developer/.asdf/installs/ruby/2.5.1/lib/ruby/gems/2.5.0/gems/puma-3.12.6/lib/puma/server.rb",
              "function": "block in run",
              "lineno": 334,
              "in_app": false,
              "filename": "puma/server.rb",
              "pre_context": [
                "          client.close\n",
                "        else\n",
                "          if process_now\n"
              ],
              "context_line": "            process_client client, buffer\n",
              "post_context": [
                "          else\n",
                "            client.set_timeout @first_data_timeout\n",
                "            @reactor.add client\n"
              ]
            },
            {
              "project_root": "/Users/developer/rails-project",
              "abs_path": "/Users/developer/.asdf/installs/ruby/2.5.1/lib/ruby/gems/2.5.0/gems/actionview-5.2.6/lib/action_view/path_set.rb",
              "function": "find",
              "lineno": 48,
              "in_app": false,
              "filename": "action_view/path_set.rb",
              "pre_context": ["    end\n", "\n", "    def find(*args)\n"],
              "context_line": "      find_all(*args).first || raise(MissingTemplate.new(self, *args))\n",
              "post_context": [
                "    end\n",
                "\n",
                "    def find_file(path, prefixes = [], *args)\n"
              ]
            }
          ]
        }
      }
    ]
  }
}
