module github.com/opstrace/opstrace/scheduler

go 1.17

replace github.com/opstrace/opstrace/go => ../go

replace github.com/opstrace/opstrace/tenant-operator => ../tenant-operator

replace gitlab.com/gitlab-org/opstrace/opstrace/clickhouse-operator => ../clickhouse-operator

require (
	github.com/anthhub/forwarder v1.1.1-0.20211220023309-47c50bc55038
	github.com/cert-manager/cert-manager v1.8.0
	github.com/go-logr/logr v1.2.3
	github.com/gogo/protobuf v1.3.2
	github.com/iancoleman/orderedmap v0.2.0
	github.com/jackc/pgx/v4 v4.16.0
	github.com/jaegertracing/jaeger v1.36.0
	github.com/onsi/ginkgo/v2 v2.1.4
	github.com/onsi/gomega v1.20.0
	github.com/opstrace/opstrace/go v0.0.0-20220111200850-70b770e19ff9
	github.com/opstrace/opstrace/tenant-operator v0.0.0-00010101000000-000000000000
	github.com/prometheus-operator/prometheus-operator/pkg/apis/monitoring v0.56.1
	github.com/prometheus/common v0.37.0
	github.com/spotahome/redis-operator v1.1.1
	gitlab.com/gitlab-org/opstrace/opstrace/clickhouse-operator v0.0.0-00010101000000-000000000000
	go.opentelemetry.io/otel v1.8.0
	go.opentelemetry.io/otel/exporters/otlp/otlptrace/otlptracehttp v1.8.0
	go.opentelemetry.io/otel/sdk v1.8.0
	go.opentelemetry.io/otel/trace v1.8.0
	go.uber.org/zap v1.21.0
	gopkg.in/yaml.v3 v3.0.1
	k8s.io/api v0.24.0
	k8s.io/apiextensions-apiserver v0.24.0
	k8s.io/apimachinery v0.24.0
	k8s.io/client-go v12.0.0+incompatible
	k8s.io/utils v0.0.0-20220210201930-3a6ce19ff2f9
	sigs.k8s.io/controller-runtime v0.12.1
	sigs.k8s.io/yaml v1.3.0
)

require (
	cloud.google.com/go/compute v1.6.1 // indirect
	github.com/Azure/go-ansiterm v0.0.0-20210617225240-d185dfc1b5a1 // indirect
	github.com/Azure/go-autorest v14.2.0+incompatible // indirect
	github.com/Azure/go-autorest/autorest v0.11.24 // indirect
	github.com/Azure/go-autorest/autorest/adal v0.9.18 // indirect
	github.com/Azure/go-autorest/autorest/date v0.3.0 // indirect
	github.com/Azure/go-autorest/logger v0.2.1 // indirect
	github.com/Azure/go-autorest/tracing v0.6.0 // indirect
	github.com/ClickHouse/clickhouse-go/v2 v2.0.14 // indirect
	github.com/beorn7/perks v1.0.1 // indirect
	github.com/blang/semver v3.5.1+incompatible // indirect
	github.com/cenkalti/backoff/v4 v4.1.3 // indirect
	github.com/cespare/xxhash/v2 v2.1.2 // indirect
	github.com/chai2010/gettext-go v0.0.0-20160711120539-c6fed771bfd5 // indirect
	github.com/davecgh/go-spew v1.1.1 // indirect
	github.com/emicklei/go-restful v2.15.0+incompatible // indirect
	github.com/evanphx/json-patch v5.6.0+incompatible // indirect
	github.com/evanphx/json-patch/v5 v5.6.0 // indirect
	github.com/exponent-io/jsonpath v0.0.0-20151013193312-d6023ce2651d // indirect
	github.com/fatih/camelcase v1.0.0 // indirect
	github.com/fsnotify/fsnotify v1.5.4 // indirect
	github.com/go-errors/errors v1.4.2 // indirect
	github.com/go-logr/stdr v1.2.2 // indirect
	github.com/go-logr/zapr v1.2.0 // indirect
	github.com/go-openapi/jsonpointer v0.19.5 // indirect
	github.com/go-openapi/jsonreference v0.20.0 // indirect
	github.com/go-openapi/swag v0.21.1 // indirect
	github.com/golang-jwt/jwt/v4 v4.2.0 // indirect
	github.com/golang/groupcache v0.0.0-20210331224755-41bb18bfe9da // indirect
	github.com/golang/protobuf v1.5.2 // indirect
	github.com/google/btree v1.0.1 // indirect
	github.com/google/gnostic v0.6.9 // indirect
	github.com/google/go-cmp v0.5.8 // indirect
	github.com/google/go-querystring v1.1.0 // indirect
	github.com/google/gofuzz v1.2.0 // indirect
	github.com/google/shlex v0.0.0-20191202100458-e7afc7fbc510 // indirect
	github.com/google/uuid v1.3.0 // indirect
	github.com/gregjones/httpcache v0.0.0-20190611155906-901d90724c79 // indirect
	github.com/grpc-ecosystem/grpc-gateway v1.16.0 // indirect
	github.com/grpc-ecosystem/grpc-gateway/v2 v2.7.0 // indirect
	github.com/hashicorp/go-cleanhttp v0.5.2 // indirect
	github.com/hashicorp/go-retryablehttp v0.6.8 // indirect
	github.com/hashicorp/hcl v1.0.0 // indirect
	github.com/imdario/mergo v0.3.13 // indirect
	github.com/inconshreveable/mousetrap v1.0.0 // indirect
	github.com/jackc/chunkreader/v2 v2.0.1 // indirect
	github.com/jackc/pgconn v1.12.0 // indirect
	github.com/jackc/pgio v1.0.0 // indirect
	github.com/jackc/pgpassfile v1.0.0 // indirect
	github.com/jackc/pgproto3/v2 v2.3.0 // indirect
	github.com/jackc/pgservicefile v0.0.0-20200714003250-2b9c44734f2b // indirect
	github.com/jackc/pgtype v1.11.0 // indirect
	github.com/jaegertracing/jaeger-operator v1.32.0 // indirect
	github.com/josharian/intern v1.0.0 // indirect
	github.com/json-iterator/go v1.1.12 // indirect
	github.com/liggitt/tabwriter v0.0.0-20181228230101-89fcab3d43de // indirect
	github.com/magiconair/properties v1.8.6 // indirect
	github.com/mailru/easyjson v0.7.7 // indirect
	github.com/matttproud/golang_protobuf_extensions v1.0.2-0.20181231171920-c182affec369 // indirect
	github.com/mitchellh/go-wordwrap v1.0.0 // indirect
	github.com/mitchellh/mapstructure v1.5.0 // indirect
	github.com/moby/spdystream v0.2.0 // indirect
	github.com/moby/term v0.0.0-20210619224110-3f7ff695adc6 // indirect
	github.com/modern-go/concurrent v0.0.0-20180306012644-bacd9c7ef1dd // indirect
	github.com/modern-go/reflect2 v1.0.2 // indirect
	github.com/monochromegane/go-gitignore v0.0.0-20200626010858-205db1a8cc00 // indirect
	github.com/munnerz/goautoneg v0.0.0-20191010083416-a7dc8b61c822 // indirect
	github.com/openshift/elasticsearch-operator v0.0.0-20210921091239-caf25067d56d // indirect
	github.com/paulmach/orb v0.6.0 // indirect
	github.com/pelletier/go-toml v1.9.5 // indirect
	github.com/pelletier/go-toml/v2 v2.0.1 // indirect
	github.com/peterbourgon/diskv v2.0.1+incompatible // indirect
	github.com/pierrec/lz4/v4 v4.1.14 // indirect
	github.com/pkg/errors v0.9.1 // indirect
	github.com/pmezard/go-difflib v1.0.0 // indirect
	github.com/prometheus/client_golang v1.12.2 // indirect
	github.com/prometheus/client_model v0.2.0 // indirect
	github.com/prometheus/procfs v0.7.3 // indirect
	github.com/russross/blackfriday v1.5.2 // indirect
	github.com/shopspring/decimal v1.3.1 // indirect
	github.com/sirupsen/logrus v1.8.1 // indirect
	github.com/spf13/afero v1.8.2 // indirect
	github.com/spf13/cast v1.5.0 // indirect
	github.com/spf13/cobra v1.5.0 // indirect
	github.com/spf13/jwalterweatherman v1.1.0 // indirect
	github.com/spf13/pflag v1.0.5 // indirect
	github.com/spf13/viper v1.12.0 // indirect
	github.com/stretchr/testify v1.8.0 // indirect
	github.com/subosito/gotenv v1.3.0 // indirect
	github.com/xanzy/go-gitlab v0.65.0 // indirect
	github.com/xlab/treeprint v1.1.0 // indirect
	go.opentelemetry.io/otel/exporters/otlp/internal/retry v1.8.0 // indirect
	go.opentelemetry.io/otel/exporters/otlp/otlptrace v1.8.0 // indirect
	go.opentelemetry.io/proto/otlp v0.18.0 // indirect
	go.starlark.net v0.0.0-20220328144851-d1966c6b9fcd // indirect
	go.uber.org/atomic v1.9.0 // indirect
	go.uber.org/multierr v1.8.0 // indirect
	golang.org/x/crypto v0.0.0-20220507011949-2cf3adece122 // indirect
	golang.org/x/net v0.0.0-20220520000938-2e3eb7b945c2 // indirect
	golang.org/x/oauth2 v0.0.0-20220411215720-9780585627b5 // indirect
	golang.org/x/sync v0.0.0-20220513210516-0976fa681c29 // indirect
	golang.org/x/sys v0.0.0-20220520151302-bc2c85ada10a // indirect
	golang.org/x/term v0.0.0-20220411215600-e5f449aeb171 // indirect
	golang.org/x/text v0.3.7 // indirect
	golang.org/x/time v0.0.0-20220411224347-583f2d630306 // indirect
	gomodules.xyz/jsonpatch/v2 v2.2.0 // indirect
	google.golang.org/appengine v1.6.7 // indirect
	google.golang.org/genproto v0.0.0-20220519153652-3a47de7e79bd // indirect
	google.golang.org/protobuf v1.28.0 // indirect
	gopkg.in/inf.v0 v0.9.1 // indirect
	gopkg.in/ini.v1 v1.66.4 // indirect
	gopkg.in/yaml.v2 v2.4.0 // indirect
	k8s.io/cli-runtime v0.24.0 // indirect
	k8s.io/component-base v0.24.0 // indirect
	k8s.io/klog/v2 v2.60.1 // indirect
	k8s.io/kube-openapi v0.0.0-20220413171646-5e7f5fdc6da6 // indirect
	k8s.io/kubectl v0.24.0 // indirect
	sigs.k8s.io/gateway-api v0.4.1 // indirect
	sigs.k8s.io/json v0.0.0-20211208200746-9f7c6b3444d2 // indirect
	sigs.k8s.io/kustomize/api v0.11.4 // indirect
	sigs.k8s.io/kustomize/kyaml v0.13.6 // indirect
	sigs.k8s.io/structured-merge-diff/v4 v4.2.1 // indirect
)

require (
	github.com/MakeNowJust/heredoc v1.0.0 // indirect
	google.golang.org/grpc v1.48.0
)

replace github.com/gogo/protobuf v1.3.1 => github.com/gogo/protobuf v1.3.2

replace k8s.io/client-go => k8s.io/client-go v0.24.0 // Required by prometheus-operator & jaeger-operator
